\relax 
\citation{Petersen-07}
\citation{DeBelder-10-short}
\citation{Feng-09}
\citation{Martos-12}
\citation{Carroll-98}
\citation{Rello-12}
\citation{Devlin-98,Burstein-07-short,DeBelder-10-short}
\citation{Yatskar-10-short,Biran&al'11,horn2014learning}
\citation{Yatskar-10-short}
\citation{Biran&al'11}
\citation{horn2014learning}
\citation{mikolov2013distributed,pennington2014glove}
\citation{horn2014learning}
\citation{specia2012semeval}
\citation{Carroll-98,Bautista-09-short}
\citation{Devlin-98,DeBelder-10-short}
\citation{Bautista-09-short}
\citation{DeBelder-10-short}
\citation{Shardlow-14-long}
\@LN@col{1}
\@LN@col{2}
\citation{}
\citation{Yatskar-10-short}
\citation{Biran&al'11}
\citation{Yatskar-10-short}
\citation{Biran&al'11}
\citation{horn2014learning}
\citation{pennington2014glove}
\@LN@col{1}
\@LN@col{2}
\newlabel{sec:candidateselection}{{3.1}{2}}
\newlabel{sec:features}{{3.2}{2}}
\citation{michel2011quantitative}
\citation{pauls2011faster}
\@LN@col{1}
\@LN@col{2}
\newlabel{alg:simplificationsentence}{{1}{3}}
\citation{horn2014learning}
\citation{horn2014learning}
\citation{horn2014learning}
\citation{Biran&al'11}
\citation{Biran&al'11}
\citation{horn2014learning}
\citation{horn2014learning}
\citation{Biran&al'11}
\citation{horn2014learning}
\citation{specia2012semeval}
\citation{jauhar2012uow}
\citation{jauhar2012uow}
\citation{jauhar2012uow}
\citation{yeh2000more}
\bibstyle{acl}
\bibdata{references}
\bibcite{Bautista-09-short}{\citename {Bautista \bgroup et al.\egroup }2009}
\@LN@col{1}
\newlabel{tbl:replacementtask}{{1}{4}}
\@LN@col{2}
\newlabel{tbl:semevaltask}{{2}{4}}
\bibcite{Biran&al'11}{\citename {Biran \bgroup et al.\egroup }2011}
\bibcite{Burstein-07-short}{\citename {Burstein \bgroup et al.\egroup }2007}
\bibcite{Carroll-98}{\citename {Carroll \bgroup et al.\egroup }1998}
\bibcite{DeBelder-10-short}{\citename {De\nobreakspace  {}Belder and Moens}2010}
\bibcite{Devlin-98}{\citename {Devlin and Tait}1998}
\bibcite{Feng-09}{\citename {Feng}2009}
\bibcite{horn2014learning}{\citename {Horn \bgroup et al.\egroup }2014}
\bibcite{jauhar2012uow}{\citename {Jauhar and Specia}2012}
\bibcite{Martos-12}{\citename {Martos \bgroup et al.\egroup }2012}
\bibcite{michel2011quantitative}{\citename {Michel \bgroup et al.\egroup }2011}
\bibcite{mikolov2013distributed}{\citename {Mikolov \bgroup et al.\egroup }2013}
\bibcite{pauls2011faster}{\citename {Pauls and Klein}2011}
\bibcite{pennington2014glove}{\citename {Pennington \bgroup et al.\egroup }2014}
\bibcite{Petersen-07}{\citename {Petersen and Ostendorf}2007}
\bibcite{Rello-12}{\citename {Rello}2012}
\bibcite{Shardlow-14-long}{\citename {Shardlow}2014}
\bibcite{specia2012semeval}{\citename {Specia \bgroup et al.\egroup }2012}
\bibcite{Yatskar-10-short}{\citename {Yatskar \bgroup et al.\egroup }2010}
\bibcite{yeh2000more}{\citename {Yeh}2000}
\@LN@col{1}
\@LN@col{2}
